hw9
…
bike_data <- read_csv("https://www4.stat.ncsu.edu/~online/datasets/SeoulBikeData.csv",
                      local = locale(encoding = "latin1"))

Rows: 8760 Columns: 14
── Column specification ────────────────────────────────────────────────────────
Delimiter: ","
chr  (4): Date, Seasons, Holiday, Functioning Day
dbl (10): Rented Bike Count, Hour, Temperature(°C), Humidity(%), Wind speed ...

ℹ Use `spec()` to retrieve the full column specification for this data.
ℹ Specify the column types or set `show_col_types = FALSE` to quiet this message.

bike_data

# A tibble: 8,760 × 14
   Date       `Rented Bike Count`  Hour `Temperature(°C)` `Humidity(%)`
   <chr>                    <dbl> <dbl>             <dbl>         <dbl>
 1 01/12/2017                 254     0              -5.2            37
 2 01/12/2017                 204     1              -5.5            38
 3 01/12/2017                 173     2              -6              39
 4 01/12/2017                 107     3              -6.2            40
 5 01/12/2017                  78     4              -6              36
 6 01/12/2017                 100     5              -6.4            37
 7 01/12/2017                 181     6              -6.6            35
 8 01/12/2017                 460     7              -7.4            38
 9 01/12/2017                 930     8              -7.6            37
10 01/12/2017                 490     9              -6.5            27
# ℹ 8,750 more rows
# ℹ 9 more variables: `Wind speed (m/s)` <dbl>, `Visibility (10m)` <dbl>,
#   `Dew point temperature(°C)` <dbl>, `Solar Radiation (MJ/m2)` <dbl>,
#   `Rainfall(mm)` <dbl>, `Snowfall (cm)` <dbl>, Seasons <chr>, Holiday <chr>,
#   `Functioning Day` <chr>
…
`summarise()` has grouped output by 'date', 'seasons'. You can override using
the `.groups` argument.

bike_data

# A tibble: 353 × 12
   date       seasons holiday    bike_count    temp humidity wind_speed   vis
   <date>     <fct>   <fct>           <dbl>   <dbl>    <dbl>      <dbl> <dbl>
 1 2017-12-01 Winter  No Holiday       9539 -2.45       45.9      1.54  1871.
 2 2017-12-02 Winter  No Holiday       8523  1.33       62.0      1.71  1471.
 3 2017-12-03 Winter  No Holiday       7222  4.88       81.5      1.61   456.
 4 2017-12-04 Winter  No Holiday       8729 -0.304      52.5      3.45  1363.
 5 2017-12-05 Winter  No Holiday       8307 -4.46       36.4      1.11  1959.
 6 2017-12-06 Winter  No Holiday       6669  0.0458     70.8      0.696 1187.
 7 2017-12-07 Winter  No Holiday       8549  1.09       67.5      1.69   949.
 8 2017-12-08 Winter  No Holiday       8032 -3.82       41.8      1.85  1872.
 9 2017-12-09 Winter  No Holiday       7233 -0.846      46        1.08  1861.
10 2017-12-10 Winter  No Holiday       3453  1.19       69.7      2.00  1043.
# ℹ 343 more rows
# ℹ 4 more variables: dew_point_temp <dbl>, solar_radiation <dbl>,
#   rainfall <dbl>, snowfall <dbl>
…
rf_tune <- rf_wf |>
  tune_grid(resamples = bike_10_fold, grid = rf_grid)

Finding the best model.

lasso_metrics <- collect_metrics(lasso_tune)
tree_metrics <- collect_metrics(tree_tune)
bag_tree_metrics <- collect_metrics(bag_tree_tune)
rf_metrics <- collect_metrics(rf_tune)

lasso_metrics

# A tibble: 40 × 7
    penalty .metric .estimator     mean     n  std_err .config              
      <dbl> <chr>   <chr>         <dbl> <int>    <dbl> <chr>                
 1 1   e-10 rmse    standard   4272.       10 168.     Preprocessor1_Model01
 2 1   e-10 rsq     standard      0.823    10   0.0152 Preprocessor1_Model01
 3 3.36e-10 rmse    standard   4272.       10 168.     Preprocessor1_Model02
 4 3.36e-10 rsq     standard      0.823    10   0.0152 Preprocessor1_Model02
 5 1.13e- 9 rmse    standard   4272.       10 168.     Preprocessor1_Model03
 6 1.13e- 9 rsq     standard      0.823    10   0.0152 Preprocessor1_Model03
 7 3.79e- 9 rmse    standard   4272.       10 168.     Preprocessor1_Model04
 8 3.79e- 9 rsq     standard      0.823    10   0.0152 Preprocessor1_Model04
 9 1.27e- 8 rmse    standard   4272.       10 168.     Preprocessor1_Model05
10 1.27e- 8 rsq     standard      0.823    10   0.0152 Preprocessor1_Model05
# ℹ 30 more rows

tree_metrics

# A tibble: 50 × 8
   cost_complexity tree_depth .metric .estimator     mean     n  std_err .config
             <dbl>      <int> <chr>   <chr>         <dbl> <int>    <dbl> <chr>  
 1    0.0000000001          1 rmse    standard   6432.       10 350.     Prepro…
 2    0.0000000001          1 rsq     standard      0.595    10   0.0484 Prepro…
 3    0.0000000178          1 rmse    standard   6432.       10 350.     Prepro…
 4    0.0000000178          1 rsq     standard      0.595    10   0.0484 Prepro…
 5    0.00000316            1 rmse    standard   6432.       10 350.     Prepro…
 6    0.00000316            1 rsq     standard      0.595    10   0.0484 Prepro…
 7    0.000562              1 rmse    standard   6432.       10 350.     Prepro…
 8    0.000562              1 rsq     standard      0.595    10   0.0484 Prepro…
 9    0.1                   1 rmse    standard   6432.       10 350.     Prepro…
10    0.1                   1 rsq     standard      0.595    10   0.0484 Prepro…
# ℹ 40 more rows

bag_tree_metrics

# A tibble: 50 × 8
   trees min_n .metric .estimator     mean     n  std_err .config              
   <int> <int> <chr>   <chr>         <dbl> <int>    <dbl> <chr>                
 1    50     2 rmse    standard   3202.       10 206.     Preprocessor1_Model01
 2    50     2 rsq     standard      0.901    10   0.0148 Preprocessor1_Model01
 3   162     2 rmse    standard   3103.       10 192.     Preprocessor1_Model02
 4   162     2 rsq     standard      0.908    10   0.0140 Preprocessor1_Model02
 5   275     2 rmse    standard   3127.       10 206.     Preprocessor1_Model03
 6   275     2 rsq     standard      0.906    10   0.0145 Preprocessor1_Model03
 7   387     2 rmse    standard   3127.       10 187.     Preprocessor1_Model04
 8   387     2 rsq     standard      0.907    10   0.0136 Preprocessor1_Model04
 9   500     2 rmse    standard   3110.       10 193.     Preprocessor1_Model05
10   500     2 rsq     standard      0.907    10   0.0139 Preprocessor1_Model05
# ℹ 40 more rows

rf_metrics

# A tibble: 50 × 8
    mtry trees .metric .estimator     mean     n  std_err .config              
   <int> <int> <chr>   <chr>         <dbl> <int>    <dbl> <chr>                
 1     2   100 rmse    standard   3511.       10 177.     Preprocessor1_Model01
 2     2   100 rsq     standard      0.890    10   0.0144 Preprocessor1_Model01
 3     4   100 rmse    standard   3195.       10 199.     Preprocessor1_Model02
 4     4   100 rsq     standard      0.902    10   0.0151 Preprocessor1_Model02
 5     6   100 rmse    standard   3103.       10 210.     Preprocessor1_Model03
 6     6   100 rsq     standard      0.905    10   0.0149 Preprocessor1_Model03
 7     8   100 rmse    standard   3062.       10 203.     Preprocessor1_Model04
 8     8   100 rsq     standard      0.907    10   0.0142 Preprocessor1_Model04
 9    10   100 rmse    standard   3071.       10 195.     Preprocessor1_Model05
10    10   100 rsq     standard      0.907    10   0.0138 Preprocessor1_Model05
# ℹ 40 more rows
…
